comparador_tb.vcd
$date
  Fri Jun 09 16:05:06 2023
$end
$version
  GHDL v0
$end
$timescale
  1 fs
$end
$var reg 6 ! coinsum[5:0] $end
$var reg 6 " productprice[5:0] $end
$var reg 1 # dispense $end
$scope module uut $end
$var reg 6 $ coinsum[5:0] $end
$var reg 6 % productprice[5:0] $end
$var reg 1 & dispense $end
$upscope $end
$enddefinitions $end
#0
b000010 !
b000100 "
0#
b000010 $
b000100 %
0&
#10000000
b000100 !
1#
b000100 $
1&
#20000000
b001000 !
b001000 $
#30000000
b000000 !
b000000 "
b000000 $
b000000 %
#40000000
b000100 "
0#
b000100 %
0&
#50000000
b000100 !
b000000 "
1#
b000100 $
b000000 %
1&
#60000000
b111111 !
b000100 "
b111111 $
b000100 %
#70000000
b000100 !
b111111 "
0#
b000100 $
b111111 %
0&
#80000000
b111111 !
1#
b111111 $
1&
