TP_VENDA-main/t1.vcd
$date
  Mon Jun 26 20:48:48 2023
$end
$version
  GHDL v0
$end
$timescale
  1 fs
$end
$var reg 1 ! pino1_tb $end
$var reg 1 " pino2_tb $end
$var reg 1 # pino3_tb $end
$var reg 1 $ enable_tb $end
$var reg 8 % produto_preco_tb[7:0] $end
$scope module uut $end
$var reg 1 & pino1 $end
$var reg 1 ' pino2 $end
$var reg 1 ( pino3 $end
$var reg 1 ) enable $end
$var reg 8 * produto_preco[7:0] $end
$upscope $end
$enddefinitions $end
#0
0!
0"
0#
1$
b00000001 %
0&
0'
0(
1)
b00000001 *
#10000000
1#
b00000010 %
1(
b00000010 *
#20000000
1"
0#
b00000011 %
1'
0(
b00000011 *
#30000000
1#
b00000101 %
1(
b00000101 *
#40000000
1!
0"
0#
b00001010 %
1&
0'
0(
b00001010 *
#50000000
1#
b00001111 %
1(
b00001111 *
#60000000
0!
0#
0$
b00000000 %
0&
0(
0)
b00000000 *
#70000000
1!
1"
1#
1&
1'
1(
