TP_VENDA-main/test.vcd
$date
  Wed Jun 14 15:13:56 2023
$end
$version
  GHDL v0
$end
$timescale
  1 fs
$end
$scope module standard $end
$upscope $end
$scope module std_logic_1164 $end
$upscope $end
$scope module numeric_std $end
$upscope $end
$scope module fsm_tb $end
$var reg 1 ! pin01 $end
$var reg 1 " pin02 $end
$var reg 1 # pin03 $end
$var reg 1 $ pin04 $end
$var reg 1 % pin05 $end
$var reg 1 & pin06 $end
$var reg 1 ' pin07 $end
$var reg 1 ( pin08 $end
$var reg 1 ) pin09 $end
$var reg 1 * clk $end
$var reg 1 + enter $end
$var reg 1 , change_display $end
$var reg 1 - dispenser_display $end
$var reg 1 . segment_displaya $end
$var reg 1 / segment_displayb $end
$var reg 1 0 segment_displayc $end
$var reg 1 1 segment_displayd $end
$var reg 1 2 segment_displaye $end
$var reg 1 3 segment_displayf $end
$var reg 1 4 segment_displayg $end
$var reg 8 5 troco[7:0] $end
$var reg 1 6 s $end
$scope module dut $end
$var reg 1 7 pin01 $end
$var reg 1 8 pin02 $end
$var reg 1 9 pin03 $end
$var reg 1 : pin04 $end
$var reg 1 ; pin05 $end
$var reg 1 < pin06 $end
$var reg 1 = pin07 $end
$var reg 1 > pin08 $end
$var reg 1 ? pin09 $end
$var reg 1 @ clk $end
$var reg 1 A enter $end
$var reg 1 B change_display $end
$var reg 1 C dispenser_display $end
$var reg 1 D segment_displaya $end
$var reg 1 E segment_displayb $end
$var reg 1 F segment_displayc $end
$var reg 1 G segment_displayd $end
$var reg 1 H segment_displaye $end
$var reg 1 I segment_displayf $end
$var reg 1 J segment_displayg $end
$var reg 8 K troco[7:0] $end
$var reg 1 L s $end
$comment current_state is not handled $end
$comment next_state is not handled $end
$var reg 8 M saidaprodutoselecionado[7:0] $end
$var reg 8 N precoprodutoselecionado[7:0] $end
$var reg 8 O somamoedas[7:0] $end
$var reg 8 P somaregistrador[7:0] $end
$var reg 8 Q precoregistrador[7:0] $end
$var reg 1 R saidaclock $end
$var reg 1 S saidacomparador $end
$var reg 1 T meureset $end
$var reg 1 U dispenseractive $end
$scope module meuclock $end
$var reg 1 V clk50mhz $end
$var reg 1 W reset $end
$var reg 1 X clk1hz $end
$var reg 1 Y b $end
$upscope $end
$scope module selectproduct $end
$var reg 1 Z pino1 $end
$var reg 1 [ pino2 $end
$var reg 1 \ pino3 $end
$var reg 8 ] produto_preco[7:0] $end
$upscope $end
$scope module insertcoin $end
$var reg 1 ^ pino4 $end
$var reg 1 _ pino5 $end
$var reg 1 ` pino6 $end
$var reg 1 a pino7 $end
$var reg 8 b coinsum[7:0] $end
$var reg 8 c coins[7:0] $end
$upscope $end
$scope module meuregistrador $end
$var reg 8 d coin[7:0] $end
$var reg 8 e productprice[7:0] $end
$var reg 1 f clock $end
$var reg 1 g reset $end
$var reg 8 h sum[7:0] $end
$var reg 8 i price[7:0] $end
$var reg 8 j sum_reg[7:0] $end
$var reg 8 k price_reg[7:0] $end
$upscope $end
$scope module verificadordetroco $end
$var reg 8 l productprice[7:0] $end
$var reg 8 m coinsum[7:0] $end
$var reg 8 n change[7:0] $end
$var reg 1 o segmenta $end
$var reg 1 p segmentb $end
$var reg 1 q segmentc $end
$var reg 1 r segmentd $end
$var reg 1 s segmente $end
$var reg 1 t segmentf $end
$var reg 1 u segmentg $end
$upscope $end
$scope module meucomparador $end
$var reg 8 v coinsum[7:0] $end
$var reg 8 w productprice[7:0] $end
$var reg 1 x dispense $end
$upscope $end
$scope module meudispenser $end
$var reg 1 y state $end
$var reg 1 z dispensersignal $end
$upscope $end
$upscope $end
$upscope $end
$enddefinitions $end
#0
1!
0"
0#
0$
0%
0&
0'
0(
0)
0*
1+
U,
0-
0.
0/
00
01
02
03
14
b00000000 5
06
17
08
09
0:
0;
0<
0=
0>
0?
0@
1A
UB
0C
0D
0E
0F
0G
0H
0I
1J
b00000000 K
0L
b0000X0X0 M
b00000000 N
b00000000 O
bUUUUUUUU P
bUUUUUUUU Q
0R
0S
UT
UU
0V
0W
0X
0Y
1Z
0[
0\
b0000X0X0 ]
0^
0_
0`
0a
b00000000 b
b00000000 c
b00000000 d
b0000X0X0 e
0f
0g
bUUUUUUUU h
bUUUUUUUU i
bUUUUUUUU j
bUUUUUUUU k
b0000X0X0 l
b00000000 m
b00000000 n
0o
0p
0q
0r
0s
0t
1u
b00000000 v
b0000X0X0 w
0x
Uy
0z
#5000000
1*
1@
bXXXXXXXX P
b0000X0X0 Q
1V
1f
bXXXXXXXX h
b0000X0X0 i
bXXXXXXXX j
b0000X0X0 k
#10000000
0!
1$
0*
07
1:
0@
b0000000X M
0V
0Z
b0000000X ]
1^
b00000001 c
b0000000X e
0f
b0000000X l
b0000000X w
#15000000
1*
1@
b0000000X Q
1V
1f
bXXXXXXXX h
b0000000X i
b0000000X k
#20000000
0$
1%
0*
0:
1;
0@
b0000000X O
0V
0^
1_
b0000000X b
b00000011 c
b0000000X d
0f
b0000000X m
b0000000X v
#25000000
1*
1@
bXXXXXXXX Q
1V
1f
bXXXXXXXX h
bXXXXXXXX i
#30000000
0%
0*
0;
0@
b000000XX O
0V
0_
b000000XX b
b000000XX d
0f
b000000XX m
b000000XX v
#35000000
1*
1@
1V
1f
#40000000
0*
0@
0V
0f
#45000000
1*
1@
1V
1f
#50000000
0*
0@
0V
0f
#55000000
1*
1@
1V
1f
#60000000
0*
0@
0V
0f
#65000000
1*
1@
1V
1f
#70000000
0*
0@
0V
0f
#75000000
1*
1@
1V
1f
#80000000
0*
0@
0V
0f
#85000000
1*
1@
1V
1f
#90000000
0*
0@
0V
0f
#95000000
1*
1@
1V
1f
#100000000
0*
0@
0V
0f
#105000000
1*
1@
1V
1f
#110000000
0*
0@
0V
0f
#115000000
1*
1@
1V
1f
#120000000
0*
0@
0V
0f
#125000000
1*
1@
1V
1f
#130000000
1)
0*
1?
0@
0C
b00000000 P
b00000000 Q
0V
b0000000X ]
0f
1g
b00000000 h
b00000000 i
b00000000 j
b00000000 k
0z
#135000000
1*
1@
1V
1f
#140000000
1!
0)
0*
17
0?
0@
b0000X0X0 M
0V
1Z
b0000X0X0 ]
b0000X0X0 e
0f
0g
b0000X0X0 l
b0000X0X0 w
#145000000
1*
1@
bXXXXXXXX P
b0000X0X0 Q
1V
1f
bXXXXXXXX h
b0000X0X0 i
bXXXXXXXX j
b0000X0X0 k
#150000000
0!
1$
0*
07
1:
0@
b0000000X M
0V
0Z
b0000000X ]
1^
b00000100 c
b0000000X e
0f
b0000000X l
b0000000X w
#155000000
1*
1@
b0000000X Q
1V
1f
bXXXXXXXX h
b0000000X i
b0000000X k
#160000000
0$
1%
0*
0:
1;
0@
b00000X00 O
0V
0^
1_
b00000X00 b
b00000110 c
b00000X00 d
0f
b00000X00 m
b00000X00 v
#165000000
1*
1@
bXXXXXXXX Q
1V
1f
bXXXXXXXX h
bXXXXXXXX i
#170000000
0%
0*
0;
0@
b00000XX0 O
0V
0_
b00000XX0 b
b00000XX0 d
0f
b00000XX0 m
b00000XX0 v
#175000000
1*
1@
1V
1f
#180000000
0*
0@
0V
0f
#185000000
1*
1@
1V
1f
#190000000
0*
0@
0V
0f
#195000000
1*
1@
1V
1f
#200000000
0*
0@
0V
0f
#205000000
1*
1@
1V
1f
#210000000
0*
0@
0V
0f
#215000000
1*
1@
1V
1f
#220000000
0*
0@
0V
0f
#225000000
1*
1@
1V
1f
#230000000
0*
0@
0V
0f
#235000000
1*
1@
1V
1f
#240000000
0*
0@
0V
0f
#245000000
1*
1@
1V
1f
#250000000
0*
0@
0V
0f
#255000000
1*
1@
1V
1f
#260000000
0*
0@
0V
0f
#265000000
1*
1@
1V
1f
#270000000
1)
0*
1?
0@
0C
b00000000 P
b00000000 Q
0V
b0000000X ]
0f
1g
b00000000 h
b00000000 i
b00000000 j
b00000000 k
0z
#275000000
1*
1@
1V
1f
#280000000
1!
0)
0*
17
0?
0@
b0000X0X0 M
0V
1Z
b0000X0X0 ]
b0000X0X0 e
0f
0g
b0000X0X0 l
b0000X0X0 w
#285000000
1*
1@
bXXXXXXXX P
b0000X0X0 Q
1V
1f
bXXXXXXXX h
b0000X0X0 i
bXXXXXXXX j
b0000X0X0 k
#290000000
0!
1$
0*
07
1:
0@
b0000000X M
0V
0Z
b0000000X ]
1^
b00000111 c
b0000000X e
0f
b0000000X l
b0000000X w
#295000000
1*
1@
b0000000X Q
1V
1f
bXXXXXXXX h
b0000000X i
b0000000X k
#300000000
0$
1%
0*
0:
1;
0@
b00000XXX O
0V
0^
1_
b00000XXX b
b00001001 c
b00000XXX d
0f
b00000XXX m
b00000XXX v
#305000000
1*
1@
bXXXXXXXX Q
1V
1f
bXXXXXXXX h
bXXXXXXXX i
#310000000
0%
0*
0;
0@
b0000X00X O
0V
0_
b0000X00X b
b0000X00X d
0f
b0000X00X m
b0000X00X v
#315000000
1*
1@
1V
1f
#320000000
0*
0@
0V
0f
#325000000
1*
1@
1V
1f
#330000000
0*
0@
0V
0f
#335000000
1*
1@
1V
1f
#340000000
0*
0@
0V
0f
#345000000
1*
1@
1V
1f
#350000000
0*
0@
0V
0f
#355000000
1*
1@
1V
1f
#360000000
0*
0@
0V
0f
#365000000
1*
1@
1V
1f
#370000000
0*
0@
0V
0f
#375000000
1*
1@
1V
1f
#380000000
0*
0@
0V
0f
#385000000
1*
1@
1V
1f
#390000000
0*
0@
0V
0f
#395000000
1*
1@
1V
1f
#400000000
0*
0@
0V
0f
#405000000
1*
1@
1V
1f
#410000000
1)
0*
1?
0@
0C
b00000000 P
b00000000 Q
0V
b0000000X ]
0f
1g
b00000000 h
b00000000 i
b00000000 j
b00000000 k
0z
#415000000
1*
1@
1V
1f
#420000000
1!
0)
0*
17
0?
0@
b0000X0X0 M
0V
1Z
b0000X0X0 ]
b0000X0X0 e
0f
0g
b0000X0X0 l
b0000X0X0 w
#425000000
1*
1@
bXXXXXXXX P
b0000X0X0 Q
1V
1f
bXXXXXXXX h
b0000X0X0 i
bXXXXXXXX j
b0000X0X0 k
#430000000
0!
1$
0*
07
1:
0@
b0000000X M
0V
0Z
b0000000X ]
1^
b00001010 c
b0000000X e
0f
b0000000X l
b0000000X w
#435000000
1*
1@
b0000000X Q
1V
1f
bXXXXXXXX h
b0000000X i
b0000000X k
#440000000
0$
1%
0*
0:
1;
0@
b0000X0X0 O
0V
0^
1_
b0000X0X0 b
b00001100 c
b0000X0X0 d
0f
b0000X0X0 m
b0000X0X0 v
#445000000
1*
1@
bXXXXXXXX Q
1V
1f
bXXXXXXXX h
bXXXXXXXX i
#450000000
0%
0*
0;
0@
b0000XX00 O
0V
0_
b0000XX00 b
b0000XX00 d
0f
b0000XX00 m
b0000XX00 v
#455000000
1*
1@
1V
1f
#460000000
0*
0@
0V
0f
#465000000
1*
1@
1V
1f
#470000000
0*
0@
0V
0f
#475000000
1*
1@
1V
1f
#480000000
0*
0@
0V
0f
#485000000
1*
1@
1V
1f
#490000000
0*
0@
0V
0f
#495000000
1*
1@
1V
1f
#500000000
0*
0@
0V
0f
#505000000
1*
1@
1V
1f
#510000000
0*
0@
0V
0f
#515000000
1*
1@
1V
1f
#520000000
0*
0@
0V
0f
#525000000
1*
1@
1V
1f
#530000000
0*
0@
0V
0f
#535000000
1*
1@
1V
1f
#540000000
0*
0@
0V
0f
#545000000
1*
1@
1V
1f
#550000000
1)
0*
1?
0@
0C
b00000000 P
b00000000 Q
0V
b0000000X ]
0f
1g
b00000000 h
b00000000 i
b00000000 j
b00000000 k
0z
#555000000
1*
1@
1V
1f
#560000000
1!
0)
0*
17
0?
0@
b0000X0X0 M
0V
1Z
b0000X0X0 ]
b0000X0X0 e
0f
0g
b0000X0X0 l
b0000X0X0 w
#565000000
1*
1@
bXXXXXXXX P
b0000X0X0 Q
1V
1f
bXXXXXXXX h
b0000X0X0 i
bXXXXXXXX j
b0000X0X0 k
#570000000
0!
1$
0*
07
1:
0@
b0000000X M
0V
0Z
b0000000X ]
1^
b00001101 c
b0000000X e
0f
b0000000X l
b0000000X w
#575000000
1*
1@
b0000000X Q
1V
1f
bXXXXXXXX h
b0000000X i
b0000000X k
#580000000
0$
1%
0*
0:
1;
0@
b0000XX0X O
0V
0^
1_
b0000XX0X b
b00001111 c
b0000XX0X d
0f
b0000XX0X m
b0000XX0X v
#585000000
1*
1@
bXXXXXXXX Q
1V
1f
bXXXXXXXX h
bXXXXXXXX i
#590000000
0%
0*
0;
0@
b0000XXXX O
0V
0_
b0000XXXX b
b0000XXXX d
0f
b0000XXXX m
b0000XXXX v
#595000000
1*
1@
1V
1f
#600000000
0*
0@
0V
0f
#605000000
1*
1@
1V
1f
#610000000
0*
0@
0V
0f
#615000000
1*
1@
1V
1f
#620000000
0*
0@
0V
0f
#625000000
1*
1@
1V
1f
#630000000
0*
0@
0V
0f
#635000000
1*
1@
1V
1f
#640000000
0*
0@
0V
0f
#645000000
1*
1@
1V
1f
#650000000
0*
0@
0V
0f
#655000000
1*
1@
1V
1f
#660000000
0*
0@
0V
0f
#665000000
1*
1@
1V
1f
#670000000
0*
0@
0V
0f
#675000000
1*
1@
1V
1f
#680000000
0*
0@
0V
0f
#685000000
1*
1@
1V
1f
#690000000
1)
0*
1?
0@
0C
b00000000 P
b00000000 Q
0V
b0000000X ]
0f
1g
b00000000 h
b00000000 i
b00000000 j
b00000000 k
0z
#695000000
1*
1@
1V
1f
#700000000
1!
0)
0*
17
0?
0@
b0000X0X0 M
0V
1Z
b0000X0X0 ]
b0000X0X0 e
0f
0g
b0000X0X0 l
b0000X0X0 w
#705000000
1*
1@
bXXXXXXXX P
b0000X0X0 Q
1V
1f
bXXXXXXXX h
b0000X0X0 i
bXXXXXXXX j
b0000X0X0 k
#710000000
0!
1$
0*
07
1:
0@
b0000000X M
0V
0Z
b0000000X ]
1^
b00010000 c
b0000000X e
0f
b0000000X l
b0000000X w
#715000000
1*
1@
b0000000X Q
1V
1f
bXXXXXXXX h
b0000000X i
b0000000X k
#720000000
0$
1%
0*
0:
1;
0@
b000X0000 O
0V
0^
1_
b000X0000 b
b00010010 c
b000X0000 d
0f
b000X0000 m
b000X0000 v
#725000000
1*
1@
bXXXXXXXX Q
1V
1f
bXXXXXXXX h
bXXXXXXXX i
#730000000
0%
0*
0;
0@
b000X00X0 O
0V
0_
b000X00X0 b
b000X00X0 d
0f
b000X00X0 m
b000X00X0 v
#735000000
1*
1@
1V
1f
#740000000
0*
0@
0V
0f
#745000000
1*
1@
1V
1f
#750000000
0*
0@
0V
0f
#755000000
1*
1@
1V
1f
#760000000
0*
0@
0V
0f
#765000000
1*
1@
1V
1f
#770000000
0*
0@
0V
0f
#775000000
1*
1@
1V
1f
#780000000
0*
0@
0V
0f
#785000000
1*
1@
1V
1f
#790000000
0*
0@
0V
0f
#795000000
1*
1@
1V
1f
#800000000
0*
0@
0V
0f
#805000000
1*
1@
1V
1f
#810000000
0*
0@
0V
0f
#815000000
1*
1@
1V
1f
#820000000
0*
0@
0V
0f
#825000000
1*
1@
1V
1f
#830000000
1)
0*
1?
0@
0C
b00000000 P
b00000000 Q
0V
b0000000X ]
0f
1g
b00000000 h
b00000000 i
b00000000 j
b00000000 k
0z
#835000000
1*
1@
1V
1f
#840000000
1!
0)
0*
17
0?
0@
b0000X0X0 M
0V
1Z
b0000X0X0 ]
b0000X0X0 e
0f
0g
b0000X0X0 l
b0000X0X0 w
#845000000
1*
1@
bXXXXXXXX P
b0000X0X0 Q
1V
1f
bXXXXXXXX h
b0000X0X0 i
bXXXXXXXX j
b0000X0X0 k
#850000000
0!
1$
0*
07
1:
0@
b0000000X M
0V
0Z
b0000000X ]
1^
b00010011 c
b0000000X e
0f
b0000000X l
b0000000X w
#855000000
1*
1@
b0000000X Q
1V
1f
bXXXXXXXX h
b0000000X i
b0000000X k
#860000000
0$
1%
0*
0:
1;
0@
b000X00XX O
0V
0^
1_
b000X00XX b
b00010101 c
b000X00XX d
0f
b000X00XX m
b000X00XX v
#865000000
1*
1@
bXXXXXXXX Q
1V
1f
bXXXXXXXX h
bXXXXXXXX i
#870000000
0%
0*
0;
0@
b000X0X0X O
0V
0_
b000X0X0X b
b000X0X0X d
0f
b000X0X0X m
b000X0X0X v
#875000000
1*
1@
1V
1f
#880000000
0*
0@
0V
0f
#885000000
1*
1@
1V
1f
#890000000
0*
0@
0V
0f
#895000000
1*
1@
1V
1f
#900000000
0*
0@
0V
0f
#905000000
1*
1@
1V
1f
#910000000
0*
0@
0V
0f
#915000000
1*
1@
1V
1f
#920000000
0*
0@
0V
0f
#925000000
1*
1@
1V
1f
#930000000
0*
0@
0V
0f
#935000000
1*
1@
1V
1f
#940000000
0*
0@
0V
0f
#945000000
1*
1@
1V
1f
#950000000
0*
0@
0V
0f
#955000000
1*
1@
1V
1f
#960000000
0*
0@
0V
0f
#965000000
1*
1@
1V
1f
#970000000
1)
0*
1?
0@
0C
b00000000 P
b00000000 Q
0V
b0000000X ]
0f
1g
b00000000 h
b00000000 i
b00000000 j
b00000000 k
0z
#975000000
1*
1@
1V
1f
#980000000
1!
0)
0*
17
0?
0@
b0000X0X0 M
0V
1Z
b0000X0X0 ]
b0000X0X0 e
0f
0g
b0000X0X0 l
b0000X0X0 w
#985000000
1*
1@
bXXXXXXXX P
b0000X0X0 Q
1V
1f
bXXXXXXXX h
b0000X0X0 i
bXXXXXXXX j
b0000X0X0 k
#990000000
0!
1$
0*
07
1:
0@
b0000000X M
0V
0Z
b0000000X ]
1^
b00010110 c
b0000000X e
0f
b0000000X l
b0000000X w
#995000000
1*
1@
b0000000X Q
1V
1f
bXXXXXXXX h
b0000000X i
b0000000X k
#1000000000
0$
1%
0*
0:
1;
0@
b000X0XX0 O
0V
0^
1_
b000X0XX0 b
b00011000 c
b000X0XX0 d
0f
b000X0XX0 m
b000X0XX0 v
#1005000000
1*
1@
bXXXXXXXX Q
1V
1f
bXXXXXXXX h
bXXXXXXXX i
#1010000000
0%
0*
0;
0@
b000XX000 O
0V
0_
b000XX000 b
b000XX000 d
0f
b000XX000 m
b000XX000 v
#1015000000
1*
1@
1V
1f
#1020000000
0*
0@
0V
0f
#1025000000
1*
1@
1V
1f
#1030000000
0*
0@
0V
0f
#1035000000
1*
1@
1V
1f
#1040000000
0*
0@
0V
0f
#1045000000
1*
1@
1V
1f
#1050000000
0*
0@
0V
0f
#1055000000
1*
1@
1V
1f
#1060000000
0*
0@
0V
0f
#1065000000
1*
1@
1V
1f
#1070000000
0*
0@
0V
0f
#1075000000
1*
1@
1V
1f
#1080000000
0*
0@
0V
0f
#1085000000
1*
1@
1V
1f
#1090000000
0*
0@
0V
0f
#1095000000
1*
1@
1V
1f
#1100000000
0*
0@
0V
0f
#1105000000
1*
1@
1V
1f
#1110000000
1)
0*
1?
0@
0C
b00000000 P
b00000000 Q
0V
b0000000X ]
0f
1g
b00000000 h
b00000000 i
b00000000 j
b00000000 k
0z
#1115000000
1*
1@
1V
1f
#1120000000
1!
0)
0*
17
0?
0@
b0000X0X0 M
0V
1Z
b0000X0X0 ]
b0000X0X0 e
0f
0g
b0000X0X0 l
b0000X0X0 w
#1125000000
1*
1@
bXXXXXXXX P
b0000X0X0 Q
1V
1f
bXXXXXXXX h
b0000X0X0 i
bXXXXXXXX j
b0000X0X0 k
#1130000000
0!
1$
0*
07
1:
0@
b0000000X M
0V
0Z
b0000000X ]
1^
b00011001 c
b0000000X e
0f
b0000000X l
b0000000X w
#1135000000
1*
1@
b0000000X Q
1V
1f
bXXXXXXXX h
b0000000X i
b0000000X k
#1140000000
0$
1%
0*
0:
1;
0@
b000XX00X O
0V
0^
1_
b000XX00X b
b00011011 c
b000XX00X d
0f
b000XX00X m
b000XX00X v
#1145000000
1*
1@
bXXXXXXXX Q
1V
1f
bXXXXXXXX h
bXXXXXXXX i
#1150000000
0%
0*
0;
0@
b000XX0XX O
0V
0_
b000XX0XX b
b000XX0XX d
0f
b000XX0XX m
b000XX0XX v
#1155000000
1*
1@
1V
1f
#1160000000
0*
0@
0V
0f
#1165000000
1*
1@
1V
1f
#1170000000
0*
0@
0V
0f
#1175000000
1*
1@
1V
1f
#1180000000
0*
0@
0V
0f
#1185000000
1*
1@
1V
1f
#1190000000
0*
0@
0V
0f
#1195000000
1*
1@
1V
1f
#1200000000
0*
0@
0V
0f
#1205000000
1*
1@
1V
1f
#1210000000
0*
0@
0V
0f
#1215000000
1*
1@
1V
1f
#1220000000
0*
0@
0V
0f
#1225000000
1*
1@
1V
1f
#1230000000
0*
0@
0V
0f
#1235000000
1*
1@
1V
1f
#1240000000
0*
0@
0V
0f
#1245000000
1*
1@
1V
1f
#1250000000
1)
0*
1?
0@
0C
b00000000 P
b00000000 Q
0V
b0000000X ]
0f
1g
b00000000 h
b00000000 i
b00000000 j
b00000000 k
0z
#1255000000
1*
1@
1V
1f
#1260000000
1!
0)
0*
17
0?
0@
b0000X0X0 M
0V
1Z
b0000X0X0 ]
b0000X0X0 e
0f
0g
b0000X0X0 l
b0000X0X0 w
#1265000000
1*
1@
bXXXXXXXX P
b0000X0X0 Q
1V
1f
bXXXXXXXX h
b0000X0X0 i
bXXXXXXXX j
b0000X0X0 k
#1270000000
0!
1$
0*
07
1:
0@
b0000000X M
0V
0Z
b0000000X ]
1^
b00011100 c
b0000000X e
0f
b0000000X l
b0000000X w
#1275000000
1*
1@
b0000000X Q
1V
1f
bXXXXXXXX h
b0000000X i
b0000000X k
#1280000000
0$
1%
0*
0:
1;
0@
b000XXX00 O
0V
0^
1_
b000XXX00 b
b00011110 c
b000XXX00 d
0f
b000XXX00 m
b000XXX00 v
#1285000000
1*
1@
bXXXXXXXX Q
1V
1f
bXXXXXXXX h
bXXXXXXXX i
#1290000000
0%
0*
0;
0@
b000XXXX0 O
0V
0_
b000XXXX0 b
b000XXXX0 d
0f
b000XXXX0 m
b000XXXX0 v
#1295000000
1*
1@
1V
1f
#1300000000
0*
0@
0V
0f
#1305000000
1*
1@
1V
1f
#1310000000
0*
0@
0V
0f
#1315000000
1*
1@
1V
1f
#1320000000
0*
0@
0V
0f
#1325000000
1*
1@
1V
1f
#1330000000
0*
0@
0V
0f
#1335000000
1*
1@
1V
1f
#1340000000
0*
0@
0V
0f
#1345000000
1*
1@
1V
1f
#1350000000
0*
0@
0V
0f
#1355000000
1*
1@
1V
1f
#1360000000
0*
0@
0V
0f
#1365000000
1*
1@
1V
1f
#1370000000
0*
0@
0V
0f
#1375000000
1*
1@
1V
1f
#1380000000
0*
0@
0V
0f
#1385000000
1*
1@
1V
1f
#1390000000
1)
0*
1?
0@
0C
b00000000 P
b00000000 Q
0V
b0000000X ]
0f
1g
b00000000 h
b00000000 i
b00000000 j
b00000000 k
0z
#1395000000
1*
1@
1V
1f
#1400000000
1!
0)
0*
17
0?
0@
b0000X0X0 M
0V
1Z
b0000X0X0 ]
b0000X0X0 e
0f
0g
b0000X0X0 l
b0000X0X0 w
#1405000000
1*
1@
bXXXXXXXX P
b0000X0X0 Q
1V
1f
bXXXXXXXX h
b0000X0X0 i
bXXXXXXXX j
b0000X0X0 k
#1410000000
0!
1$
0*
07
1:
0@
b0000000X M
0V
0Z
b0000000X ]
1^
b00011111 c
b0000000X e
0f
b0000000X l
b0000000X w
#1415000000
1*
1@
b0000000X Q
1V
1f
bXXXXXXXX h
b0000000X i
b0000000X k
#1420000000
0$
1%
0*
0:
1;
0@
b000XXXXX O
0V
0^
1_
b000XXXXX b
b00100001 c
b000XXXXX d
0f
b000XXXXX m
b000XXXXX v
#1425000000
1*
1@
bXXXXXXXX Q
1V
1f
bXXXXXXXX h
bXXXXXXXX i
#1430000000
0%
0*
0;
0@
b00X0000X O
0V
0_
b00X0000X b
b00X0000X d
0f
b00X0000X m
b00X0000X v
#1435000000
1*
1@
1V
1f
#1440000000
0*
0@
0V
0f
#1445000000
1*
1@
1V
1f
#1450000000
0*
0@
0V
0f
#1455000000
1*
1@
1V
1f
#1460000000
0*
0@
0V
0f
#1465000000
1*
1@
1V
1f
#1470000000
0*
0@
0V
0f
#1475000000
1*
1@
1V
1f
#1480000000
0*
0@
0V
0f
#1485000000
1*
1@
1V
1f
#1490000000
0*
0@
0V
0f
#1495000000
1*
1@
1V
1f
#1500000000
0*
0@
0V
0f
#1505000000
1*
1@
1V
1f
#1510000000
0*
0@
0V
0f
#1515000000
1*
1@
1V
1f
#1520000000
0*
0@
0V
0f
#1525000000
1*
1@
1V
1f
#1530000000
1)
0*
1?
0@
0C
b00000000 P
b00000000 Q
0V
b0000000X ]
0f
1g
b00000000 h
b00000000 i
b00000000 j
b00000000 k
0z
#1535000000
1*
1@
1V
1f
#1540000000
1!
0)
0*
17
0?
0@
b0000X0X0 M
0V
1Z
b0000X0X0 ]
b0000X0X0 e
0f
0g
b0000X0X0 l
b0000X0X0 w
#1545000000
1*
1@
bXXXXXXXX P
b0000X0X0 Q
1V
1f
bXXXXXXXX h
b0000X0X0 i
bXXXXXXXX j
b0000X0X0 k
#1550000000
0!
1$
0*
07
1:
0@
b0000000X M
0V
0Z
b0000000X ]
1^
b00100010 c
b0000000X e
0f
b0000000X l
b0000000X w
#1555000000
1*
1@
b0000000X Q
1V
1f
bXXXXXXXX h
b0000000X i
b0000000X k
#1560000000
0$
1%
0*
0:
1;
0@
b00X000X0 O
0V
0^
1_
b00X000X0 b
b00100100 c
b00X000X0 d
0f
b00X000X0 m
b00X000X0 v
#1565000000
1*
1@
bXXXXXXXX Q
1V
1f
bXXXXXXXX h
bXXXXXXXX i
#1570000000
0%
0*
0;
0@
b00X00X00 O
0V
0_
b00X00X00 b
b00X00X00 d
0f
b00X00X00 m
b00X00X00 v
#1575000000
1*
1@
1V
1f
#1580000000
0*
0@
0V
0f
#1585000000
1*
1@
1V
1f
#1590000000
0*
0@
0V
0f
#1595000000
1*
1@
1V
1f
#1600000000
0*
0@
0V
0f
#1605000000
1*
1@
1V
1f
#1610000000
0*
0@
0V
0f
#1615000000
1*
1@
1V
1f
#1620000000
0*
0@
0V
0f
#1625000000
1*
1@
1V
1f
#1630000000
0*
0@
0V
0f
#1635000000
1*
1@
1V
1f
#1640000000
0*
0@
0V
0f
#1645000000
1*
1@
1V
1f
#1650000000
0*
0@
0V
0f
#1655000000
1*
1@
1V
1f
#1660000000
0*
0@
0V
0f
#1665000000
1*
1@
1V
1f
#1670000000
1)
0*
1?
0@
0C
b00000000 P
b00000000 Q
0V
b0000000X ]
0f
1g
b00000000 h
b00000000 i
b00000000 j
b00000000 k
0z
#1675000000
1*
1@
1V
1f
#1680000000
1!
0)
0*
17
0?
0@
b0000X0X0 M
0V
1Z
b0000X0X0 ]
b0000X0X0 e
0f
0g
b0000X0X0 l
b0000X0X0 w
#1685000000
1*
1@
bXXXXXXXX P
b0000X0X0 Q
1V
1f
bXXXXXXXX h
b0000X0X0 i
bXXXXXXXX j
b0000X0X0 k
#1690000000
0!
1$
0*
07
1:
0@
b0000000X M
0V
0Z
b0000000X ]
1^
b00100101 c
b0000000X e
0f
b0000000X l
b0000000X w
#1695000000
1*
1@
b0000000X Q
1V
1f
bXXXXXXXX h
b0000000X i
b0000000X k
#1700000000
0$
1%
0*
0:
1;
0@
b00X00X0X O
0V
0^
1_
b00X00X0X b
b00100111 c
b00X00X0X d
0f
b00X00X0X m
b00X00X0X v
#1705000000
1*
1@
bXXXXXXXX Q
1V
1f
bXXXXXXXX h
bXXXXXXXX i
#1710000000
0%
0*
0;
0@
b00X00XXX O
0V
0_
b00X00XXX b
b00X00XXX d
0f
b00X00XXX m
b00X00XXX v
#1715000000
1*
1@
1V
1f
#1720000000
0*
0@
0V
0f
#1725000000
1*
1@
1V
1f
#1730000000
0*
0@
0V
0f
#1735000000
1*
1@
1V
1f
#1740000000
0*
0@
0V
0f
#1745000000
1*
1@
1V
1f
#1750000000
0*
0@
0V
0f
#1755000000
1*
1@
1V
1f
#1760000000
0*
0@
0V
0f
#1765000000
1*
1@
1V
1f
#1770000000
0*
0@
0V
0f
#1775000000
1*
1@
1V
1f
#1780000000
0*
0@
0V
0f
#1785000000
1*
1@
1V
1f
#1790000000
0*
0@
0V
0f
#1795000000
1*
1@
1V
1f
#1800000000
0*
0@
0V
0f
#1805000000
1*
1@
1V
1f
#1810000000
1)
0*
1?
0@
0C
b00000000 P
b00000000 Q
0V
b0000000X ]
0f
1g
b00000000 h
b00000000 i
b00000000 j
b00000000 k
0z
#1815000000
1*
1@
1V
1f
#1820000000
1!
0)
0*
17
0?
0@
b0000X0X0 M
0V
1Z
b0000X0X0 ]
b0000X0X0 e
0f
0g
b0000X0X0 l
b0000X0X0 w
#1825000000
1*
1@
bXXXXXXXX P
b0000X0X0 Q
1V
1f
bXXXXXXXX h
b0000X0X0 i
bXXXXXXXX j
b0000X0X0 k
#1830000000
0!
1$
0*
07
1:
0@
b0000000X M
0V
0Z
b0000000X ]
1^
b00101000 c
b0000000X e
0f
b0000000X l
b0000000X w
#1835000000
1*
1@
b0000000X Q
1V
1f
bXXXXXXXX h
b0000000X i
b0000000X k
#1840000000
0$
1%
0*
0:
1;
0@
b00X0X000 O
0V
0^
1_
b00X0X000 b
b00101010 c
b00X0X000 d
0f
b00X0X000 m
b00X0X000 v
#1845000000
1*
1@
bXXXXXXXX Q
1V
1f
bXXXXXXXX h
bXXXXXXXX i
#1850000000
0%
0*
0;
0@
b00X0X0X0 O
0V
0_
b00X0X0X0 b
b00X0X0X0 d
0f
b00X0X0X0 m
b00X0X0X0 v
#1855000000
1*
1@
1V
1f
#1860000000
0*
0@
0V
0f
#1865000000
1*
1@
1V
1f
#1870000000
0*
0@
0V
0f
#1875000000
1*
1@
1V
1f
#1880000000
0*
0@
0V
0f
#1885000000
1*
1@
1V
1f
#1890000000
0*
0@
0V
0f
#1895000000
1*
1@
1V
1f
